module gitea.com/go-chi/binding

go 1.13

require (
	github.com/go-chi/chi v1.5.1
	github.com/goccy/go-json v0.4.7
	github.com/smartystreets/goconvey v0.0.0-20190731233626-505e41936337
	github.com/unknwon/com v0.0.0-20190804042917-757f69c95f3e
)
